{
  "hosting": [
    {
      "target": "web",
      "public": "sites/web/public",
      "ignore": [
        "firebase.json",
        "**/.*",
        "**/node_modules/**"
      ],
      "headers": [
        {
          "source": "**",
          "headers": [
            {
              "key": "Cache-Control",
              "value": "public, max-age=86400"
            }
          ]
        },
        {
          "source": "/assets/**",
          "headers": [
            {
              "key": "Cache-Control",
              "value": "public, max-age=31556952"
            }
          ]
        },
        {
          "source": "/404.html",
          "headers": [
            {
              "key": "Content-Type",
              "value": "text/xml; charset=utf-8"
            }
          ]
        }
      ]
    },
    {
      "target": "static",
      "public": "sites/static/public",
      "ignore": [
        "firebase.json",
        "**/.*",
        "**/node_modules/**"
      ],
      "headers": [
        {
          "source": "**",
          "headers": [
            {
              "key": "Cache-Control",
              "value": "public, max-age=31556952"
            }
          ]
        }
      ]
    },
    {
      "target": "links",
      "public": "public",
      "ignore": [
        "firebase.json",
        "**/.*",
        "**/node_modules/**"
      ],
      "appAssociation": "AUTO",
      "rewrites": [
        {
          "source": "/**",
          "dynamicLinks": true
        }
      ],
      "redirects": [
        {
          "source": "/",
          "destination": "https://www.alphasigma.uk/",
          "type": 302
        }
      ]
    }
  ]
}